LabS-MCAG:MC-MCU-07:PTPState                2021-10-28 06:32:49.191  (9) PTP:SLAVE
LabS-MCAG:MC-MCU-07:PTPOffset               2021-11-09 08:56:02.957  -22
LabS-MCAG:MC-MCU-07:UTCEL1252P0             2021-11-09 08:56:03.165  2021-11-09 08:56:03.099997301 sec-epoch-now=1636448163 sec_epoch_plc=1636448163
LabS-MCAG:MC-MCU-07:DcToExtTimeOffsetEL6688 2021-10-30 13:41:28.928  -1586327000000
LabS-MCAG:MC-MCU-07:DcToExtTimeOffsetSystem 2021-10-30 13:41:28.824  -1586327000000
LabS-MCAG:MC-MCU-07:WriteDoneExtTimeOffset  2021-10-30 13:41:28.928  78
LabS-MCAG:MC-MCU-07:PTPOffset               2021-11-09 08:56:03.880  9
LabS-MCAG:MC-MCU-07:UTCEL1252P0             2021-11-09 08:56:04.186  2021-11-09 08:56:04.099997314 sec-epoch-now=1636448164 sec_epoch_plc=1636448164
LabS-MCAG:MC-MCU-07:PTPOffset               2021-11-09 08:56:04.898  44
LabS-MCAG:MC-MCU-07:UTCEL1252P0             2021-11-09 08:56:05.202  2021-11-09 08:56:05.099997304 sec-epoch-now=1636448165 sec_epoch_plc=1636448165
LabS-MCAG:MC-MCU-07:PTPOffset               2021-11-09 08:56:05.915  74
LabS-MCAG:MC-MCU-07:UTCEL1252P0             2021-11-09 08:56:06.119  2021-11-09 08:56:06.099997289 sec-epoch-now=1636448166 sec_epoch_plc=1636448166
LabS-MCAG:MC-MCU-07:PTPOffset               2021-11-09 08:56:06.933  67
LabS-MCAG:MC-MCU-07:UTCEL1252P0             2021-11-09 08:56:07.136  2021-11-09 08:56:07.099997256 sec-epoch-now=1636448167 sec_epoch_plc=1636448167
LabS-MCAG:MC-MCU-07:PTPOffset               2021-11-09 08:56:07.949  9
LabS-MCAG:MC-MCU-07:UTCEL1252P0             2021-11-09 08:56:08.154  2021-11-09 08:56:08.099997245 sec-epoch-now=1636448168 sec_epoch_plc=1636448168
LabS-MCAG:MC-MCU-07:PTPOffset               2021-11-09 08:56:08.967  -48
LabS-MCAG:MC-MCU-07:UTCEL1252P0             2021-11-09 08:56:09.171  2021-11-09 08:56:09.099997238 sec-epoch-now=1636448169 sec_epoch_plc=1636448169
LabS-MCAG:MC-MCU-07:PTPOffset               2021-11-09 08:56:09.988  13
LabS-MCAG:MC-MCU-07:UTCEL1252P0             2021-11-09 08:56:10.196  2021-11-09 08:56:10.099997228 sec-epoch-now=1636448170 sec_epoch_plc=1636448170
LabS-MCAG:MC-MCU-07:PTPOffset               2021-11-09 08:56:10.913  48
LabS-MCAG:MC-MCU-07:UTCEL1252P0             2021-11-09 08:56:11.121  2021-11-09 08:56:11.099997214 sec-epoch-now=1636448171 sec_epoch_plc=1636448171
