LabS-MCAG:MC-MCU-07:UTCEL1252P0             2021-03-17 07:16:52.011  2021-03-17 07:16:51.750939786 sec-epoch-now=1615965412 sec_epoch_plc=1615965411
LabS-MCAG:MC-MCU-07:UTCEL1252P0             2021-03-17 07:16:53.015  2021-03-17 07:16:52.750939780 sec-epoch-now=1615965413 sec_epoch_plc=1615965412
LabS-MCAG:MC-MCU-07:UTCEL1252P0             2021-03-17 07:16:54.019  2021-03-17 07:16:53.750939775 sec-epoch-now=1615965414 sec_epoch_plc=1615965413
LabS-MCAG:MC-MCU-07:UTCEL1252P0             2021-03-17 07:16:55.023  2021-03-17 07:16:54.750939778 sec-epoch-now=1615965415 sec_epoch_plc=1615965414
LabS-MCAG:MC-MCU-07:UTCEL1252P0             2021-03-17 07:16:56.028  2021-03-17 07:16:55.750939761 sec-epoch-now=1615965416 sec_epoch_plc=1615965415
LabS-MCAG:MC-MCU-07:UTCEL1252P0             2021-03-17 07:16:57.035  2021-03-17 07:16:56.750939761 sec-epoch-now=1615965417 sec_epoch_plc=1615965416
LabS-MCAG:MC-MCU-07:UTCEL1252P0             2021-03-17 07:16:58.044  2021-03-17 07:16:57.750939741 sec-epoch-now=1615965418 sec_epoch_plc=1615965417
LabS-MCAG:MC-MCU-07:UTCEL1252P0             2021-03-17 07:16:59.052  2021-03-17 07:16:58.750939723 sec-epoch-now=1615965419 sec_epoch_plc=1615965418
LabS-MCAG:MC-MCU-07:UTCEL1252P0             2021-03-17 07:17:00.060  2021-03-17 07:16:59.750939710 sec-epoch-now=1615965420 sec_epoch_plc=1615965419
LabS-MCAG:MC-MCU-07:UTCEL1252P0             2021-03-17 07:17:01.068  2021-03-17 07:17:00.750939719 sec-epoch-now=1615965421 sec_epoch_plc=1615965420
LabS-MCAG:MC-MCU-07:UTCEL1252P0             2021-03-17 07:17:02.075  2021-03-17 07:17:01.750939734 sec-epoch-now=1615965422 sec_epoch_plc=1615965421
LabS-MCAG:MC-MCU-07:UTCEL1252P0             2021-03-17 07:17:03.079  2021-03-17 07:17:02.750939737 sec-epoch-now=1615965423 sec_epoch_plc=1615965422
LabS-MCAG:MC-MCU-07:UTCEL1252P0             2021-03-17 07:17:04.083  2021-03-17 07:17:03.750939730 sec-epoch-now=1615965424 sec_epoch_plc=1615965423
LabS-MCAG:MC-MCU-07:UTCEL1252P0             2021-03-17 07:17:05.087  2021-03-17 07:17:04.750939719 sec-epoch-now=1615965425 sec_epoch_plc=1615965424
LabS-MCAG:MC-MCU-07:UTCEL1252P0             2021-03-17 07:17:06.091  2021-03-17 07:17:05.750939703 sec-epoch-now=1615965426 sec_epoch_plc=1615965425
LabS-MCAG:MC-MCU-07:UTCEL1252P0             2021-03-17 07:17:07.095  2021-03-17 07:17:06.750939698 sec-epoch-now=1615965427 sec_epoch_plc=1615965426
LabS-MCAG:MC-MCU-07:UTCEL1252P0             2021-03-17 07:17:08.099  2021-03-17 07:17:07.750939707 sec-epoch-now=1615965428 sec_epoch_plc=1615965427
LabS-MCAG:MC-MCU-07:UTCEL1252P0             2021-03-17 07:17:09.104  2021-03-17 07:17:08.750939715 sec-epoch-now=1615965429 sec_epoch_plc=1615965428
LabS-MCAG:MC-MCU-07:UTCEL1252P0             2021-03-17 07:17:10.111  2021-03-17 07:17:09.750939731 sec-epoch-now=1615965430 sec_epoch_plc=1615965429
LabS-MCAG:MC-MCU-07:UTCEL1252P0             2021-03-17 07:17:11.120  2021-03-17 07:17:10.750939733 sec-epoch-now=1615965431 sec_epoch_plc=1615965430
LabS-MCAG:MC-MCU-07:UTCEL1252P0             2021-03-17 07:17:12.128  2021-03-17 07:17:11.750939729 sec-epoch-now=1615965432 sec_epoch_plc=1615965431
LabS-MCAG:MC-MCU-07:UTCEL1252P0             2021-03-17 07:17:13.136  2021-03-17 07:17:12.750939735 sec-epoch-now=1615965433 sec_epoch_plc=1615965432
LabS-MCAG:MC-MCU-07:UTCEL1252P0             2021-03-17 07:17:14.144  2021-03-17 07:17:13.750939738 sec-epoch-now=1615965434 sec_epoch_plc=1615965433
LabS-MCAG:MC-MCU-07:UTCEL1252P0             2021-03-17 07:17:15.152  2021-03-17 07:17:14.750939730 sec-epoch-now=1615965435 sec_epoch_plc=1615965434
LabS-MCAG:MC-MCU-07:UTCEL1252P0             2021-03-17 07:17:16.157  2021-03-17 07:17:15.750939710 sec-epoch-now=1615965436 sec_epoch_plc=1615965435
LabS-MCAG:MC-MCU-07:UTCEL1252P0             2021-03-17 07:17:17.161  2021-03-17 07:17:16.750939691 sec-epoch-now=1615965437 sec_epoch_plc=1615965436
LabS-MCAG:MC-MCU-07:UTCEL1252P0             2021-03-17 07:17:18.168  2021-03-17 07:17:17.750939674 sec-epoch-now=1615965438 sec_epoch_plc=1615965437
LabS-MCAG:MC-MCU-07:UTCEL1252P0             2021-03-17 07:17:19.172  2021-03-17 07:17:18.750939669 sec-epoch-now=1615965439 sec_epoch_plc=1615965438
LabS-MCAG:MC-MCU-07:UTCEL1252P0             2021-03-17 07:17:20.176  2021-03-17 07:17:19.750939675 sec-epoch-now=1615965440 sec_epoch_plc=1615965439
LabS-MCAG:MC-MCU-07:UTCEL1252P0             2021-03-17 07:17:21.180  2021-03-17 07:17:20.750939683 sec-epoch-now=1615965441 sec_epoch_plc=1615965440
LabS-MCAG:MC-MCU-07:UTCEL1252P0             2021-03-17 07:17:22.184  2021-03-17 07:17:21.750939699 sec-epoch-now=1615965442 sec_epoch_plc=1615965441
LabS-MCAG:MC-MCU-07:UTCEL1252P0             2021-03-17 07:17:23.189  2021-03-17 07:17:22.750939701 sec-epoch-now=1615965443 sec_epoch_plc=1615965442
LabS-MCAG:MC-MCU-07:UTCEL1252P0             2021-03-17 07:17:24.196  2021-03-17 07:17:23.750939685 sec-epoch-now=1615965444 sec_epoch_plc=1615965443
LabS-MCAG:MC-MCU-07:UTCEL1252P0             2021-03-17 07:17:25.204  2021-03-17 07:17:24.750939680 sec-epoch-now=1615965445 sec_epoch_plc=1615965444
LabS-MCAG:MC-MCU-07:UTCEL1252P0             2021-03-17 07:17:26.213  2021-03-17 07:17:25.750939686 sec-epoch-now=1615965446 sec_epoch_plc=1615965445
LabS-MCAG:MC-MCU-07:UTCEL1252P0             2021-03-17 07:17:27.221  2021-03-17 07:17:26.750939694 sec-epoch-now=1615965447 sec_epoch_plc=1615965446
LabS-MCAG:MC-MCU-07:UTCEL1252P0             2021-03-17 07:17:28.229  2021-03-17 07:17:27.750939716 sec-epoch-now=1615965448 sec_epoch_plc=1615965447
LabS-MCAG:MC-MCU-07:UTCEL1252P0             2021-03-17 07:17:29.236  2021-03-17 07:17:28.750939744 sec-epoch-now=1615965449 sec_epoch_plc=1615965448
LabS-MCAG:MC-MCU-07:UTCEL1252P0             2021-03-17 07:17:30.241  2021-03-17 07:17:29.750939763 sec-epoch-now=1615965450 sec_epoch_plc=1615965449
LabS-MCAG:MC-MCU-07:UTCEL1252P0             2021-03-17 07:17:31.245  2021-03-17 07:17:30.750939768 sec-epoch-now=1615965451 sec_epoch_plc=1615965450
LabS-MCAG:MC-MCU-07:UTCEL1252P0             2021-03-17 07:17:32.249  2021-03-17 07:17:31.750939774 sec-epoch-now=1615965452 sec_epoch_plc=1615965451
LabS-MCAG:MC-MCU-07:UTCEL1252P0             2021-03-17 07:17:33.253  2021-03-17 07:17:32.750939779 sec-epoch-now=1615965453 sec_epoch_plc=1615965452
LabS-MCAG:MC-MCU-07:UTCEL1252P0             2021-03-17 07:17:34.257  2021-03-17 07:17:33.750939785 sec-epoch-now=1615965454 sec_epoch_plc=1615965453
LabS-MCAG:MC-MCU-07:UTCEL1252P0             2021-03-17 07:17:35.261  2021-03-17 07:17:34.750939788 sec-epoch-now=1615965455 sec_epoch_plc=1615965454
LabS-MCAG:MC-MCU-07:UTCEL1252P0             2021-03-17 07:17:36.265  2021-03-17 07:17:35.750939778 sec-epoch-now=1615965456 sec_epoch_plc=1615965455
LabS-MCAG:MC-MCU-07:UTCEL1252P0             2021-03-17 07:17:36.769  2021-03-17 07:17:36.750939755 sec-epoch-now=1615965456 sec_epoch_plc=1615965456
LabS-MCAG:MC-MCU-07:UTCEL1252P0             2021-03-17 07:17:37.776  2021-03-17 07:17:37.750939712 sec-epoch-now=1615965457 sec_epoch_plc=1615965457
LabS-MCAG:MC-MCU-07:UTCEL1252P0             2021-03-17 07:17:38.785  2021-03-17 07:17:38.750939682 sec-epoch-now=1615965458 sec_epoch_plc=1615965458
LabS-MCAG:MC-MCU-07:UTCEL1252P0             2021-03-17 07:17:39.793  2021-03-17 07:17:39.750939666 sec-epoch-now=1615965459 sec_epoch_plc=1615965459
LabS-MCAG:MC-MCU-07:UTCEL1252P0             2021-03-17 07:17:40.801  2021-03-17 07:17:40.750939661 sec-epoch-now=1615965460 sec_epoch_plc=1615965460
LabS-MCAG:MC-MCU-07:UTCEL1252P0             2021-03-17 07:17:41.809  2021-03-17 07:17:41.750939667 sec-epoch-now=1615965461 sec_epoch_plc=1615965461
LabS-MCAG:MC-MCU-07:UTCEL1252P0             2021-03-17 07:17:42.817  2021-03-17 07:17:42.750939670 sec-epoch-now=1615965462 sec_epoch_plc=1615965462
LabS-MCAG:MC-MCU-07:UTCEL1252P0             2021-03-17 07:17:43.822  2021-03-17 07:17:43.750939660 sec-epoch-now=1615965463 sec_epoch_plc=1615965463
LabS-MCAG:MC-MCU-07:UTCEL1252P0             2021-03-17 07:17:44.826  2021-03-17 07:17:44.750939627 sec-epoch-now=1615965464 sec_epoch_plc=1615965464
LabS-MCAG:MC-MCU-07:UTCEL1252P0             2021-03-17 07:17:45.830  2021-03-17 07:17:45.750939598 sec-epoch-now=1615965465 sec_epoch_plc=1615965465
LabS-MCAG:MC-MCU-07:UTCEL1252P0             2021-03-17 07:17:46.834  2021-03-17 07:17:46.750939581 sec-epoch-now=1615965466 sec_epoch_plc=1615965466
LabS-MCAG:MC-MCU-07:UTCEL1252P0             2021-03-17 07:17:47.838  2021-03-17 07:17:47.750939576 sec-epoch-now=1615965467 sec_epoch_plc=1615965467
LabS-MCAG:MC-MCU-07:UTCEL1252P0             2021-03-17 07:17:48.842  2021-03-17 07:17:48.750939582 sec-epoch-now=1615965468 sec_epoch_plc=1615965468
LabS-MCAG:MC-MCU-07:UTCEL1252P0             2021-03-17 07:17:49.846  2021-03-17 07:17:49.750939588 sec-epoch-now=1615965469 sec_epoch_plc=1615965469
LabS-MCAG:MC-MCU-07:UTCEL1252P0             2021-03-17 07:17:50.850  2021-03-17 07:17:50.750939593 sec-epoch-now=1615965470 sec_epoch_plc=1615965470
LabS-MCAG:MC-MCU-07:UTCEL1252P0             2021-03-17 07:17:51.858  2021-03-17 07:17:51.750939602 sec-epoch-now=1615965471 sec_epoch_plc=1615965471
LabS-MCAG:MC-MCU-07:UTCEL1252P0             2021-03-17 07:17:52.866  2021-03-17 07:17:52.750939623 sec-epoch-now=1615965472 sec_epoch_plc=1615965472
LabS-MCAG:MC-MCU-07:UTCEL1252P0             2021-03-17 07:17:53.874  2021-03-17 07:17:53.750939658 sec-epoch-now=1615965473 sec_epoch_plc=1615965473
LabS-MCAG:MC-MCU-07:UTCEL1252P0             2021-03-17 07:17:54.882  2021-03-17 07:17:54.750939688 sec-epoch-now=1615965474 sec_epoch_plc=1615965474
LabS-MCAG:MC-MCU-07:UTCEL1252P0             2021-03-17 07:17:55.890  2021-03-17 07:17:55.750939717 sec-epoch-now=1615965475 sec_epoch_plc=1615965475
LabS-MCAG:MC-MCU-07:UTCEL1252P0             2021-03-17 07:17:56.897  2021-03-17 07:17:56.750939732 sec-epoch-now=1615965476 sec_epoch_plc=1615965476
LabS-MCAG:MC-MCU-07:UTCEL1252P0             2021-03-17 07:17:57.901  2021-03-17 07:17:57.750939738 sec-epoch-now=1615965477 sec_epoch_plc=1615965477
LabS-MCAG:MC-MCU-07:UTCEL1252P0             2021-03-17 07:17:58.905  2021-03-17 07:17:58.750939741 sec-epoch-now=1615965478 sec_epoch_plc=1615965478
LabS-MCAG:MC-MCU-07:UTCEL1252P0             2021-03-17 07:17:59.909  2021-03-17 07:17:59.750939736 sec-epoch-now=1615965479 sec_epoch_plc=1615965479
LabS-MCAG:MC-MCU-07:UTCEL1252P0             2021-03-17 07:18:00.913  2021-03-17 07:18:00.750939740 sec-epoch-now=1615965480 sec_epoch_plc=1615965480
LabS-MCAG:MC-MCU-07:UTCEL1252P0             2021-03-17 07:18:01.917  2021-03-17 07:18:01.750939729 sec-epoch-now=1615965481 sec_epoch_plc=1615965481
LabS-MCAG:MC-MCU-07:UTCEL1252P0             2021-03-17 07:18:02.921  2021-03-17 07:18:02.750939707 sec-epoch-now=1615965482 sec_epoch_plc=1615965482
LabS-MCAG:MC-MCU-07:UTCEL1252P0             2021-03-17 07:18:03.925  2021-03-17 07:18:03.750939674 sec-epoch-now=1615965483 sec_epoch_plc=1615965483
LabS-MCAG:MC-MCU-07:UTCEL1252P0             2021-03-17 07:18:04.929  2021-03-17 07:18:04.750939641 sec-epoch-now=1615965484 sec_epoch_plc=1615965484
LabS-MCAG:MC-MCU-07:UTCEL1252P0             2021-03-17 07:18:05.936  2021-03-17 07:18:05.750939611 sec-epoch-now=1615965485 sec_epoch_plc=1615965485
LabS-MCAG:MC-MCU-07:UTCEL1252P0             2021-03-17 07:18:06.945  2021-03-17 07:18:06.750939595 sec-epoch-now=1615965486 sec_epoch_plc=1615965486
LabS-MCAG:MC-MCU-07:UTCEL1252P0             2021-03-17 07:18:07.953  2021-03-17 07:18:07.750939591 sec-epoch-now=1615965487 sec_epoch_plc=1615965487
LabS-MCAG:MC-MCU-07:UTCEL1252P0             2021-03-17 07:18:08.961  2021-03-17 07:18:08.750939596 sec-epoch-now=1615965488 sec_epoch_plc=1615965488
LabS-MCAG:MC-MCU-07:UTCEL1252P0             2021-03-17 07:18:09.969  2021-03-17 07:18:09.750939592 sec-epoch-now=1615965489 sec_epoch_plc=1615965489
LabS-MCAG:MC-MCU-07:UTCEL1252P0             2021-03-17 07:18:10.976  2021-03-17 07:18:10.750939595 sec-epoch-now=1615965490 sec_epoch_plc=1615965490
LabS-MCAG:MC-MCU-07:UTCEL1252P0             2021-03-17 07:18:11.980  2021-03-17 07:18:11.750939591 sec-epoch-now=1615965491 sec_epoch_plc=1615965491
LabS-MCAG:MC-MCU-07:UTCEL1252P0             2021-03-17 07:18:12.984  2021-03-17 07:18:12.750939599 sec-epoch-now=1615965492 sec_epoch_plc=1615965492
LabS-MCAG:MC-MCU-07:UTCEL1252P0             2021-03-17 07:18:13.988  2021-03-17 07:18:13.750939618 sec-epoch-now=1615965493 sec_epoch_plc=1615965493
LabS-MCAG:MC-MCU-07:UTCEL1252P0             2021-03-17 07:18:14.992  2021-03-17 07:18:14.750939633 sec-epoch-now=1615965494 sec_epoch_plc=1615965494
LabS-MCAG:MC-MCU-07:UTCEL1252P0             2021-03-17 07:18:15.996  2021-03-17 07:18:15.750939636 sec-epoch-now=1615965495 sec_epoch_plc=1615965495
LabS-MCAG:MC-MCU-07:UTCEL1252P0             2021-03-17 07:18:17.000  2021-03-17 07:18:16.750939626 sec-epoch-now=1615965497 sec_epoch_plc=1615965496
LabS-MCAG:MC-MCU-07:UTCEL1252P0             2021-03-17 07:18:18.004  2021-03-17 07:18:17.750939599 sec-epoch-now=1615965498 sec_epoch_plc=1615965497
LabS-MCAG:MC-MCU-07:UTCEL1252P0             2021-03-17 07:18:19.012  2021-03-17 07:18:18.750939595 sec-epoch-now=1615965499 sec_epoch_plc=1615965498
LabS-MCAG:MC-MCU-07:UTCEL1252P0             2021-03-17 07:18:20.020  2021-03-17 07:18:19.750939601 sec-epoch-now=1615965500 sec_epoch_plc=1615965499
LabS-MCAG:MC-MCU-07:UTCEL1252P0             2021-03-17 07:18:21.028  2021-03-17 07:18:20.750939606 sec-epoch-now=1615965501 sec_epoch_plc=1615965500
LabS-MCAG:MC-MCU-07:UTCEL1252P0             2021-03-17 07:18:22.036  2021-03-17 07:18:21.750939602 sec-epoch-now=1615965502 sec_epoch_plc=1615965501
LabS-MCAG:MC-MCU-07:UTCEL1252P0             2021-03-17 07:18:23.044  2021-03-17 07:18:22.750939607 sec-epoch-now=1615965503 sec_epoch_plc=1615965502
LabS-MCAG:MC-MCU-07:UTCEL1252P0             2021-03-17 07:18:24.052  2021-03-17 07:18:23.750939601 sec-epoch-now=1615965504 sec_epoch_plc=1615965503
LabS-MCAG:MC-MCU-07:UTCEL1252P0             2021-03-17 07:18:25.057  2021-03-17 07:18:24.750939559 sec-epoch-now=1615965505 sec_epoch_plc=1615965504
LabS-MCAG:MC-MCU-07:UTCEL1252P0             2021-03-17 07:18:26.061  2021-03-17 07:18:25.750939511 sec-epoch-now=1615965506 sec_epoch_plc=1615965505
LabS-MCAG:MC-MCU-07:UTCEL1252P0             2021-03-17 07:18:27.065  2021-03-17 07:18:26.750939455 sec-epoch-now=1615965507 sec_epoch_plc=1615965506
LabS-MCAG:MC-MCU-07:UTCEL1252P0             2021-03-17 07:18:28.069  2021-03-17 07:18:27.750939428 sec-epoch-now=1615965508 sec_epoch_plc=1615965507
LabS-MCAG:MC-MCU-07:UTCEL1252P0             2021-03-17 07:18:29.073  2021-03-17 07:18:28.750939465 sec-epoch-now=1615965509 sec_epoch_plc=1615965508
LabS-MCAG:MC-MCU-07:UTCEL1252P0             2021-03-17 07:18:30.078  2021-03-17 07:18:29.750939522 sec-epoch-now=1615965510 sec_epoch_plc=1615965509
LabS-MCAG:MC-MCU-07:UTCEL1252P0             2021-03-17 07:18:31.082  2021-03-17 07:18:30.750939565 sec-epoch-now=1615965511 sec_epoch_plc=1615965510
LabS-MCAG:MC-MCU-07:UTCEL1252P0             2021-03-17 07:18:32.087  2021-03-17 07:18:31.750939607 sec-epoch-now=1615965512 sec_epoch_plc=1615965511
LabS-MCAG:MC-MCU-07:UTCEL1252P0             2021-03-17 07:18:33.095  2021-03-17 07:18:32.750939634 sec-epoch-now=1615965513 sec_epoch_plc=1615965512
LabS-MCAG:MC-MCU-07:UTCEL1252P0             2021-03-17 07:18:34.104  2021-03-17 07:18:33.750939649 sec-epoch-now=1615965514 sec_epoch_plc=1615965513
LabS-MCAG:MC-MCU-07:UTCEL1252P0             2021-03-17 07:18:35.112  2021-03-17 07:18:34.750939658 sec-epoch-now=1615965515 sec_epoch_plc=1615965514
LabS-MCAG:MC-MCU-07:UTCEL1252P0             2021-03-17 07:18:36.120  2021-03-17 07:18:35.750939673 sec-epoch-now=1615965516 sec_epoch_plc=1615965515
LabS-MCAG:MC-MCU-07:UTCEL1252P0             2021-03-17 07:18:37.128  2021-03-17 07:18:36.750939679 sec-epoch-now=1615965517 sec_epoch_plc=1615965516
LabS-MCAG:MC-MCU-07:UTCEL1252P0             2021-03-17 07:18:38.136  2021-03-17 07:18:37.750939685 sec-epoch-now=1615965518 sec_epoch_plc=1615965517
LabS-MCAG:MC-MCU-07:UTCEL1252P0             2021-03-17 07:18:40.238  1615965517750939685 INVALID DRIVER COMM
LabS-MCAG:MC-MCU-07:UTCEL1252P0             2021-03-17 07:21:49.433  2021-03-17 07:18:37.750939685 sec-epoch-now=1615965709 sec_epoch_plc=1615965517
LabS-MCAG:MC-MCU-07:UTCEL1252P0             2021-03-17 07:21:51.270  2021-03-17 07:21:50.750483208 sec-epoch-now=1615965711 sec_epoch_plc=1615965710
LabS-MCAG:MC-MCU-07:UTCEL1252P0             2021-03-17 07:21:51.772  2021-03-17 07:21:51.750529866 sec-epoch-now=1615965711 sec_epoch_plc=1615965711
LabS-MCAG:MC-MCU-07:UTCEL1252P0             2021-03-17 07:21:52.776  2021-03-17 07:21:52.750574002 sec-epoch-now=1615965712 sec_epoch_plc=1615965712
LabS-MCAG:MC-MCU-07:UTCEL1252P0             2021-03-17 07:21:53.781  2021-03-17 07:21:53.750622414 sec-epoch-now=1615965713 sec_epoch_plc=1615965713
LabS-MCAG:MC-MCU-07:UTCEL1252P0             2021-03-17 07:21:54.785  2021-03-17 07:21:54.750666428 sec-epoch-now=1615965714 sec_epoch_plc=1615965714
LabS-MCAG:MC-MCU-07:UTCEL1252P0             2021-03-17 07:21:55.789  2021-03-17 07:21:55.750692264 sec-epoch-now=1615965715 sec_epoch_plc=1615965715
LabS-MCAG:MC-MCU-07:UTCEL1252P0             2021-03-17 07:21:56.795  2021-03-17 07:21:56.750707457 sec-epoch-now=1615965716 sec_epoch_plc=1615965716
LabS-MCAG:MC-MCU-07:UTCEL1252P0             2021-03-17 07:21:57.803  2021-03-17 07:21:57.750718261 sec-epoch-now=1615965717 sec_epoch_plc=1615965717
LabS-MCAG:MC-MCU-07:UTCEL1252P0             2021-03-17 07:21:58.811  2021-03-17 07:21:58.750727711 sec-epoch-now=1615965718 sec_epoch_plc=1615965718
LabS-MCAG:MC-MCU-07:UTCEL1252P0             2021-03-17 07:21:59.819  2021-03-17 07:21:59.750740128 sec-epoch-now=1615965719 sec_epoch_plc=1615965719
LabS-MCAG:MC-MCU-07:UTCEL1252P0             2021-03-17 07:22:00.827  2021-03-17 07:22:00.750752116 sec-epoch-now=1615965720 sec_epoch_plc=1615965720
LabS-MCAG:MC-MCU-07:UTCEL1252P0             2021-03-17 07:22:01.832  2021-03-17 07:22:01.750763204 sec-epoch-now=1615965721 sec_epoch_plc=1615965721
LabS-MCAG:MC-MCU-07:UTCEL1252P0             2021-03-17 07:22:02.836  2021-03-17 07:22:02.750773647 sec-epoch-now=1615965722 sec_epoch_plc=1615965722
LabS-MCAG:MC-MCU-07:UTCEL1252P0             2021-03-17 07:22:03.840  2021-03-17 07:22:03.750783601 sec-epoch-now=1615965723 sec_epoch_plc=1615965723
LabS-MCAG:MC-MCU-07:UTCEL1252P0             2021-03-17 07:22:04.844  2021-03-17 07:22:04.750793104 sec-epoch-now=1615965724 sec_epoch_plc=1615965724
LabS-MCAG:MC-MCU-07:UTCEL1252P0             2021-03-17 07:22:05.848  2021-03-17 07:22:05.750802143 sec-epoch-now=1615965725 sec_epoch_plc=1615965725
LabS-MCAG:MC-MCU-07:UTCEL1252P0             2021-03-17 07:22:06.852  2021-03-17 07:22:06.750810558 sec-epoch-now=1615965726 sec_epoch_plc=1615965726
LabS-MCAG:MC-MCU-07:UTCEL1252P0             2021-03-17 07:22:07.858  2021-03-17 07:22:07.750818574 sec-epoch-now=1615965727 sec_epoch_plc=1615965727
LabS-MCAG:MC-MCU-07:UTCEL1252P0             2021-03-17 07:22:08.865  2021-03-17 07:22:08.750826578 sec-epoch-now=1615965728 sec_epoch_plc=1615965728
LabS-MCAG:MC-MCU-07:UTCEL1252P0             2021-03-17 07:22:09.873  2021-03-17 07:22:09.750834411 sec-epoch-now=1615965729 sec_epoch_plc=1615965729
LabS-MCAG:MC-MCU-07:UTCEL1252P0             2021-03-17 07:22:10.881  2021-03-17 07:22:10.750841980 sec-epoch-now=1615965730 sec_epoch_plc=1615965730
LabS-MCAG:MC-MCU-07:UTCEL1252P0             2021-03-17 07:22:11.889  2021-03-17 07:22:11.750849199 sec-epoch-now=1615965731 sec_epoch_plc=1615965731
LabS-MCAG:MC-MCU-07:UTCEL1252P0             2021-03-17 07:22:12.897  2021-03-17 07:22:12.750856054 sec-epoch-now=1615965732 sec_epoch_plc=1615965732
LabS-MCAG:MC-MCU-07:UTCEL1252P0             2021-03-17 07:22:13.904  2021-03-17 07:22:13.750862519 sec-epoch-now=1615965733 sec_epoch_plc=1615965733
LabS-MCAG:MC-MCU-07:UTCEL1252P0             2021-03-17 07:22:14.908  2021-03-17 07:22:14.750868570 sec-epoch-now=1615965734 sec_epoch_plc=1615965734
LabS-MCAG:MC-MCU-07:UTCEL1252P0             2021-03-17 07:22:15.912  2021-03-17 07:22:15.750874207 sec-epoch-now=1615965735 sec_epoch_plc=1615965735
LabS-MCAG:MC-MCU-07:UTCEL1252P0             2021-03-17 07:22:16.916  2021-03-17 07:22:16.750879472 sec-epoch-now=1615965736 sec_epoch_plc=1615965736
LabS-MCAG:MC-MCU-07:UTCEL1252P0             2021-03-17 07:22:17.920  2021-03-17 07:22:17.750884374 sec-epoch-now=1615965737 sec_epoch_plc=1615965737
LabS-MCAG:MC-MCU-07:UTCEL1252P0             2021-03-17 07:22:18.924  2021-03-17 07:22:18.750888895 sec-epoch-now=1615965738 sec_epoch_plc=1615965738
LabS-MCAG:MC-MCU-07:UTCEL1252P0             2021-03-17 07:22:19.928  2021-03-17 07:22:19.750893105 sec-epoch-now=1615965739 sec_epoch_plc=1615965739
LabS-MCAG:MC-MCU-07:UTCEL1252P0             2021-03-17 07:22:20.934  2021-03-17 07:22:20.750897001 sec-epoch-now=1615965740 sec_epoch_plc=1615965740
LabS-MCAG:MC-MCU-07:UTCEL1252P0             2021-03-17 07:22:21.943  2021-03-17 07:22:21.750900605 sec-epoch-now=1615965741 sec_epoch_plc=1615965741
LabS-MCAG:MC-MCU-07:UTCEL1252P0             2021-03-17 07:22:22.951  2021-03-17 07:22:22.750903920 sec-epoch-now=1615965742 sec_epoch_plc=1615965742
LabS-MCAG:MC-MCU-07:UTCEL1252P0             2021-03-17 07:22:23.959  2021-03-17 07:22:23.750906940 sec-epoch-now=1615965743 sec_epoch_plc=1615965743
LabS-MCAG:MC-MCU-07:UTCEL1252P0             2021-03-17 07:22:24.967  2021-03-17 07:22:24.750909695 sec-epoch-now=1615965744 sec_epoch_plc=1615965744
LabS-MCAG:MC-MCU-07:UTCEL1252P0             2021-03-17 07:22:25.975  2021-03-17 07:22:25.750912300 sec-epoch-now=1615965745 sec_epoch_plc=1615965745
LabS-MCAG:MC-MCU-07:UTCEL1252P0             2021-03-17 07:22:26.982  2021-03-17 07:22:26.750914838 sec-epoch-now=1615965746 sec_epoch_plc=1615965746
LabS-MCAG:MC-MCU-07:UTCEL1252P0             2021-03-17 07:22:27.986  2021-03-17 07:22:27.750917505 sec-epoch-now=1615965747 sec_epoch_plc=1615965747
LabS-MCAG:MC-MCU-07:UTCEL1252P0             2021-03-17 07:22:28.990  2021-03-17 07:22:28.750920189 sec-epoch-now=1615965748 sec_epoch_plc=1615965748
LabS-MCAG:MC-MCU-07:UTCEL1252P0             2021-03-17 07:22:29.994  2021-03-17 07:22:29.750922833 sec-epoch-now=1615965749 sec_epoch_plc=1615965749
LabS-MCAG:MC-MCU-07:UTCEL1252P0             2021-03-17 07:22:30.998  2021-03-17 07:22:30.750925365 sec-epoch-now=1615965750 sec_epoch_plc=1615965750
LabS-MCAG:MC-MCU-07:UTCEL1252P0             2021-03-17 07:22:32.002  2021-03-17 07:22:31.750927757 sec-epoch-now=1615965752 sec_epoch_plc=1615965751
LabS-MCAG:MC-MCU-07:UTCEL1252P0             2021-03-17 07:22:33.006  2021-03-17 07:22:32.750929987 sec-epoch-now=1615965753 sec_epoch_plc=1615965752
LabS-MCAG:MC-MCU-07:UTCEL1252P0             2021-03-17 07:22:34.012  2021-03-17 07:22:33.750932043 sec-epoch-now=1615965754 sec_epoch_plc=1615965753
LabS-MCAG:MC-MCU-07:UTCEL1252P0             2021-03-17 07:22:35.018  2021-03-17 07:22:34.750933912 sec-epoch-now=1615965755 sec_epoch_plc=1615965754
LabS-MCAG:MC-MCU-07:UTCEL1252P0             2021-03-17 07:22:36.027  2021-03-17 07:22:35.750935602 sec-epoch-now=1615965756 sec_epoch_plc=1615965755
LabS-MCAG:MC-MCU-07:UTCEL1252P0             2021-03-17 07:22:37.035  2021-03-17 07:22:36.750937135 sec-epoch-now=1615965757 sec_epoch_plc=1615965756
LabS-MCAG:MC-MCU-07:UTCEL1252P0             2021-03-17 07:22:38.043  2021-03-17 07:22:37.750938507 sec-epoch-now=1615965758 sec_epoch_plc=1615965757
LabS-MCAG:MC-MCU-07:UTCEL1252P0             2021-03-17 07:22:39.051  2021-03-17 07:22:38.750939714 sec-epoch-now=1615965759 sec_epoch_plc=1615965758
LabS-MCAG:MC-MCU-07:UTCEL1252P0             2021-03-17 07:22:40.058  2021-03-17 07:22:39.750940772 sec-epoch-now=1615965760 sec_epoch_plc=1615965759
LabS-MCAG:MC-MCU-07:UTCEL1252P0             2021-03-17 07:22:41.063  2021-03-17 07:22:40.750941652 sec-epoch-now=1615965761 sec_epoch_plc=1615965760
LabS-MCAG:MC-MCU-07:UTCEL1252P0             2021-03-17 07:22:42.067  2021-03-17 07:22:41.750942364 sec-epoch-now=1615965762 sec_epoch_plc=1615965761
LabS-MCAG:MC-MCU-07:UTCEL1252P0             2021-03-17 07:22:43.071  2021-03-17 07:22:42.750942932 sec-epoch-now=1615965763 sec_epoch_plc=1615965762
LabS-MCAG:MC-MCU-07:UTCEL1252P0             2021-03-17 07:22:44.075  2021-03-17 07:22:43.750943340 sec-epoch-now=1615965764 sec_epoch_plc=1615965763
LabS-MCAG:MC-MCU-07:UTCEL1252P0             2021-03-17 07:22:45.079  2021-03-17 07:22:44.750943622 sec-epoch-now=1615965765 sec_epoch_plc=1615965764
LabS-MCAG:MC-MCU-07:UTCEL1252P0             2021-03-17 07:22:46.083  2021-03-17 07:22:45.750943789 sec-epoch-now=1615965766 sec_epoch_plc=1615965765
LabS-MCAG:MC-MCU-07:UTCEL1252P0             2021-03-17 07:22:47.088  2021-03-17 07:22:46.750943847 sec-epoch-now=1615965767 sec_epoch_plc=1615965766
LabS-MCAG:MC-MCU-07:UTCEL1252P0             2021-03-17 07:22:48.094  2021-03-17 07:22:47.750943813 sec-epoch-now=1615965768 sec_epoch_plc=1615965767
LabS-MCAG:MC-MCU-07:UTCEL1252P0             2021-03-17 07:22:49.103  2021-03-17 07:22:48.750943708 sec-epoch-now=1615965769 sec_epoch_plc=1615965768
LabS-MCAG:MC-MCU-07:UTCEL1252P0             2021-03-17 07:22:50.111  2021-03-17 07:22:49.750943542 sec-epoch-now=1615965770 sec_epoch_plc=1615965769
LabS-MCAG:MC-MCU-07:UTCEL1252P0             2021-03-17 07:22:51.119  2021-03-17 07:22:50.750943327 sec-epoch-now=1615965771 sec_epoch_plc=1615965770
LabS-MCAG:MC-MCU-07:UTCEL1252P0             2021-03-17 07:22:52.127  2021-03-17 07:22:51.750943075 sec-epoch-now=1615965772 sec_epoch_plc=1615965771
LabS-MCAG:MC-MCU-07:UTCEL1252P0             2021-03-17 07:22:53.135  2021-03-17 07:22:52.750942788 sec-epoch-now=1615965773 sec_epoch_plc=1615965772
LabS-MCAG:MC-MCU-07:UTCEL1252P0             2021-03-17 07:22:54.142  2021-03-17 07:22:53.750942489 sec-epoch-now=1615965774 sec_epoch_plc=1615965773
LabS-MCAG:MC-MCU-07:UTCEL1252P0             2021-03-17 07:22:55.146  2021-03-17 07:22:54.750942177 sec-epoch-now=1615965775 sec_epoch_plc=1615965774
LabS-MCAG:MC-MCU-07:UTCEL1252P0             2021-03-17 07:22:56.150  2021-03-17 07:22:55.750941855 sec-epoch-now=1615965776 sec_epoch_plc=1615965775
LabS-MCAG:MC-MCU-07:UTCEL1252P0             2021-03-17 07:22:57.154  2021-03-17 07:22:56.750941534 sec-epoch-now=1615965777 sec_epoch_plc=1615965776
LabS-MCAG:MC-MCU-07:UTCEL1252P0             2021-03-17 07:22:58.158  2021-03-17 07:22:57.750941237 sec-epoch-now=1615965778 sec_epoch_plc=1615965777
LabS-MCAG:MC-MCU-07:UTCEL1252P0             2021-03-17 07:22:59.162  2021-03-17 07:22:58.750940946 sec-epoch-now=1615965779 sec_epoch_plc=1615965778
LabS-MCAG:MC-MCU-07:UTCEL1252P0             2021-03-17 07:23:00.168  2021-03-17 07:22:59.750940677 sec-epoch-now=1615965780 sec_epoch_plc=1615965779
LabS-MCAG:MC-MCU-07:UTCEL1252P0             2021-03-17 07:23:01.174  2021-03-17 07:23:00.750940420 sec-epoch-now=1615965781 sec_epoch_plc=1615965780
LabS-MCAG:MC-MCU-07:UTCEL1252P0             2021-03-17 07:23:02.181  2021-03-17 07:23:01.750940186 sec-epoch-now=1615965782 sec_epoch_plc=1615965781
LabS-MCAG:MC-MCU-07:UTCEL1252P0             2021-03-17 07:23:03.189  2021-03-17 07:23:02.750939957 sec-epoch-now=1615965783 sec_epoch_plc=1615965782
LabS-MCAG:MC-MCU-07:UTCEL1252P0             2021-03-17 07:23:04.198  2021-03-17 07:23:03.750939752 sec-epoch-now=1615965784 sec_epoch_plc=1615965783
LabS-MCAG:MC-MCU-07:UTCEL1252P0             2021-03-17 07:23:05.206  2021-03-17 07:23:04.750939569 sec-epoch-now=1615965785 sec_epoch_plc=1615965784
LabS-MCAG:MC-MCU-07:UTCEL1252P0             2021-03-17 07:23:06.214  2021-03-17 07:23:05.750939393 sec-epoch-now=1615965786 sec_epoch_plc=1615965785
LabS-MCAG:MC-MCU-07:UTCEL1252P0             2021-03-17 07:23:07.222  2021-03-17 07:23:06.750939255 sec-epoch-now=1615965787 sec_epoch_plc=1615965786
LabS-MCAG:MC-MCU-07:UTCEL1252P0             2021-03-17 07:23:08.227  2021-03-17 07:23:07.750939162 sec-epoch-now=1615965788 sec_epoch_plc=1615965787
LabS-MCAG:MC-MCU-07:UTCEL1252P0             2021-03-17 07:23:09.231  2021-03-17 07:23:08.750939073 sec-epoch-now=1615965789 sec_epoch_plc=1615965788
LabS-MCAG:MC-MCU-07:UTCEL1252P0             2021-03-17 07:23:10.235  2021-03-17 07:23:09.750939017 sec-epoch-now=1615965790 sec_epoch_plc=1615965789
LabS-MCAG:MC-MCU-07:UTCEL1252P0             2021-03-17 07:23:11.239  2021-03-17 07:23:10.750938966 sec-epoch-now=1615965791 sec_epoch_plc=1615965790
LabS-MCAG:MC-MCU-07:UTCEL1252P0             2021-03-17 07:23:12.243  2021-03-17 07:23:11.750938943 sec-epoch-now=1615965792 sec_epoch_plc=1615965791
LabS-MCAG:MC-MCU-07:UTCEL1252P0             2021-03-17 07:23:13.247  2021-03-17 07:23:12.750938954 sec-epoch-now=1615965793 sec_epoch_plc=1615965792
LabS-MCAG:MC-MCU-07:UTCEL1252P0             2021-03-17 07:23:14.251  2021-03-17 07:23:13.750938987 sec-epoch-now=1615965794 sec_epoch_plc=1615965793
LabS-MCAG:MC-MCU-07:UTCEL1252P0             2021-03-17 07:23:15.256  2021-03-17 07:23:14.750939024 sec-epoch-now=1615965795 sec_epoch_plc=1615965794
LabS-MCAG:MC-MCU-07:UTCEL1252P0             2021-03-17 07:23:16.263  2021-03-17 07:23:15.750939072 sec-epoch-now=1615965796 sec_epoch_plc=1615965795
LabS-MCAG:MC-MCU-07:UTCEL1252P0             2021-03-17 07:23:17.271  2021-03-17 07:23:16.750939144 sec-epoch-now=1615965797 sec_epoch_plc=1615965796
LabS-MCAG:MC-MCU-07:UTCEL1252P0             2021-03-17 07:23:17.776  2021-03-17 07:23:17.750939219 sec-epoch-now=1615965797 sec_epoch_plc=1615965797
LabS-MCAG:MC-MCU-07:UTCEL1252P0             2021-03-17 07:23:18.784  2021-03-17 07:23:18.750939306 sec-epoch-now=1615965798 sec_epoch_plc=1615965798
LabS-MCAG:MC-MCU-07:UTCEL1252P0             2021-03-17 07:23:19.792  2021-03-17 07:23:19.750939414 sec-epoch-now=1615965799 sec_epoch_plc=1615965799
LabS-MCAG:MC-MCU-07:UTCEL1252P0             2021-03-17 07:23:20.800  2021-03-17 07:23:20.750939511 sec-epoch-now=1615965800 sec_epoch_plc=1615965800
LabS-MCAG:MC-MCU-07:UTCEL1252P0             2021-03-17 07:23:21.807  2021-03-17 07:23:21.750939612 sec-epoch-now=1615965801 sec_epoch_plc=1615965801
LabS-MCAG:MC-MCU-07:UTCEL1252P0             2021-03-17 07:23:22.811  2021-03-17 07:23:22.750939730 sec-epoch-now=1615965802 sec_epoch_plc=1615965802
LabS-MCAG:MC-MCU-07:UTCEL1252P0             2021-03-17 07:23:23.815  2021-03-17 07:23:23.750939825 sec-epoch-now=1615965803 sec_epoch_plc=1615965803
LabS-MCAG:MC-MCU-07:UTCEL1252P0             2021-03-17 07:23:24.819  2021-03-17 07:23:24.750939910 sec-epoch-now=1615965804 sec_epoch_plc=1615965804
LabS-MCAG:MC-MCU-07:UTCEL1252P0             2021-03-17 07:23:25.823  2021-03-17 07:23:25.750940006 sec-epoch-now=1615965805 sec_epoch_plc=1615965805
LabS-MCAG:MC-MCU-07:UTCEL1252P0             2021-03-17 07:23:26.827  2021-03-17 07:23:26.750940088 sec-epoch-now=1615965806 sec_epoch_plc=1615965806
LabS-MCAG:MC-MCU-07:UTCEL1252P0             2021-03-17 07:23:27.831  2021-03-17 07:23:27.750940158 sec-epoch-now=1615965807 sec_epoch_plc=1615965807
LabS-MCAG:MC-MCU-07:UTCEL1252P0             2021-03-17 07:23:28.836  2021-03-17 07:23:28.750940225 sec-epoch-now=1615965808 sec_epoch_plc=1615965808
LabS-MCAG:MC-MCU-07:UTCEL1252P0             2021-03-17 07:23:29.841  2021-03-17 07:23:29.750940269 sec-epoch-now=1615965809 sec_epoch_plc=1615965809
LabS-MCAG:MC-MCU-07:UTCEL1252P0             2021-03-17 07:23:30.849  2021-03-17 07:23:30.750940301 sec-epoch-now=1615965810 sec_epoch_plc=1615965810
LabS-MCAG:MC-MCU-07:UTCEL1252P0             2021-03-17 07:23:31.857  2021-03-17 07:23:31.750940320 sec-epoch-now=1615965811 sec_epoch_plc=1615965811
LabS-MCAG:MC-MCU-07:UTCEL1252P0             2021-03-17 07:23:32.865  2021-03-17 07:23:32.750940336 sec-epoch-now=1615965812 sec_epoch_plc=1615965812
LabS-MCAG:MC-MCU-07:UTCEL1252P0             2021-03-17 07:23:33.873  2021-03-17 07:23:33.750940329 sec-epoch-now=1615965813 sec_epoch_plc=1615965813
LabS-MCAG:MC-MCU-07:UTCEL1252P0             2021-03-17 07:23:34.881  2021-03-17 07:23:34.750940320 sec-epoch-now=1615965814 sec_epoch_plc=1615965814
LabS-MCAG:MC-MCU-07:UTCEL1252P0             2021-03-17 07:23:35.886  2021-03-17 07:23:35.750940290 sec-epoch-now=1615965815 sec_epoch_plc=1615965815
LabS-MCAG:MC-MCU-07:UTCEL1252P0             2021-03-17 07:23:36.890  2021-03-17 07:23:36.750940263 sec-epoch-now=1615965816 sec_epoch_plc=1615965816
LabS-MCAG:MC-MCU-07:UTCEL1252P0             2021-03-17 07:23:37.894  2021-03-17 07:23:37.750940253 sec-epoch-now=1615965817 sec_epoch_plc=1615965817
LabS-MCAG:MC-MCU-07:UTCEL1252P0             2021-03-17 07:23:38.898  2021-03-17 07:23:38.750940224 sec-epoch-now=1615965818 sec_epoch_plc=1615965818
LabS-MCAG:MC-MCU-07:UTCEL1252P0             2021-03-17 07:23:39.902  2021-03-17 07:23:39.750940192 sec-epoch-now=1615965819 sec_epoch_plc=1615965819
LabS-MCAG:MC-MCU-07:UTCEL1252P0             2021-03-17 07:23:40.907  2021-03-17 07:23:40.750940156 sec-epoch-now=1615965820 sec_epoch_plc=1615965820
LabS-MCAG:MC-MCU-07:UTCEL1252P0             2021-03-17 07:23:41.911  2021-03-17 07:23:41.750940099 sec-epoch-now=1615965821 sec_epoch_plc=1615965821
LabS-MCAG:MC-MCU-07:UTCEL1252P0             2021-03-17 07:23:42.915  2021-03-17 07:23:42.750940033 sec-epoch-now=1615965822 sec_epoch_plc=1615965822
LabS-MCAG:MC-MCU-07:UTCEL1252P0             2021-03-17 07:23:43.921  2021-03-17 07:23:43.750939990 sec-epoch-now=1615965823 sec_epoch_plc=1615965823
LabS-MCAG:MC-MCU-07:UTCEL1252P0             2021-03-17 07:23:44.929  2021-03-17 07:23:44.750939945 sec-epoch-now=1615965824 sec_epoch_plc=1615965824
LabS-MCAG:MC-MCU-07:UTCEL1252P0             2021-03-17 07:23:45.938  2021-03-17 07:23:45.750939894 sec-epoch-now=1615965825 sec_epoch_plc=1615965825
LabS-MCAG:MC-MCU-07:UTCEL1252P0             2021-03-17 07:23:46.946  2021-03-17 07:23:46.750939795 sec-epoch-now=1615965826 sec_epoch_plc=1615965826
LabS-MCAG:MC-MCU-07:UTCEL1252P0             2021-03-17 07:23:47.954  2021-03-17 07:23:47.750939675 sec-epoch-now=1615965827 sec_epoch_plc=1615965827
LabS-MCAG:MC-MCU-07:UTCEL1252P0             2021-03-17 07:23:48.962  2021-03-17 07:23:48.750939548 sec-epoch-now=1615965828 sec_epoch_plc=1615965828
LabS-MCAG:MC-MCU-07:UTCEL1252P0             2021-03-17 07:23:49.967  2021-03-17 07:23:49.750939396 sec-epoch-now=1615965829 sec_epoch_plc=1615965829
LabS-MCAG:MC-MCU-07:UTCEL1252P0             2021-03-17 07:23:50.971  2021-03-17 07:23:50.750939266 sec-epoch-now=1615965830 sec_epoch_plc=1615965830
LabS-MCAG:MC-MCU-07:UTCEL1252P0             2021-03-17 07:23:51.975  2021-03-17 07:23:51.750939162 sec-epoch-now=1615965831 sec_epoch_plc=1615965831
LabS-MCAG:MC-MCU-07:UTCEL1252P0             2021-03-17 07:23:52.979  2021-03-17 07:23:52.750939073 sec-epoch-now=1615965832 sec_epoch_plc=1615965832
LabS-MCAG:MC-MCU-07:UTCEL1252P0             2021-03-17 07:23:53.984  2021-03-17 07:23:53.750939007 sec-epoch-now=1615965833 sec_epoch_plc=1615965833
LabS-MCAG:MC-MCU-07:UTCEL1252P0             2021-03-17 07:23:54.989  2021-03-17 07:23:54.750938956 sec-epoch-now=1615965834 sec_epoch_plc=1615965834
LabS-MCAG:MC-MCU-07:UTCEL1252P0             2021-03-17 07:23:55.993  2021-03-17 07:23:55.750938939 sec-epoch-now=1615965835 sec_epoch_plc=1615965835
LabS-MCAG:MC-MCU-07:UTCEL1252P0             2021-03-17 07:23:56.999  2021-03-17 07:23:56.750938921 sec-epoch-now=1615965836 sec_epoch_plc=1615965836
LabS-MCAG:MC-MCU-07:UTCEL1252P0             2021-03-17 07:23:58.006  2021-03-17 07:23:57.750938907 sec-epoch-now=1615965838 sec_epoch_plc=1615965837
LabS-MCAG:MC-MCU-07:UTCEL1252P0             2021-03-17 07:23:59.014  2021-03-17 07:23:58.750938908 sec-epoch-now=1615965839 sec_epoch_plc=1615965838
LabS-MCAG:MC-MCU-07:UTCEL1252P0             2021-03-17 07:24:00.023  2021-03-17 07:23:59.750938930 sec-epoch-now=1615965840 sec_epoch_plc=1615965839
LabS-MCAG:MC-MCU-07:UTCEL1252P0             2021-03-17 07:24:01.031  2021-03-17 07:24:00.750938977 sec-epoch-now=1615965841 sec_epoch_plc=1615965840
LabS-MCAG:MC-MCU-07:UTCEL1252P0             2021-03-17 07:24:02.039  2021-03-17 07:24:01.750939026 sec-epoch-now=1615965842 sec_epoch_plc=1615965841
LabS-MCAG:MC-MCU-07:UTCEL1252P0             2021-03-17 07:24:03.046  2021-03-17 07:24:02.750939083 sec-epoch-now=1615965843 sec_epoch_plc=1615965842
LabS-MCAG:MC-MCU-07:UTCEL1252P0             2021-03-17 07:24:04.050  2021-03-17 07:24:03.750939142 sec-epoch-now=1615965844 sec_epoch_plc=1615965843
LabS-MCAG:MC-MCU-07:UTCEL1252P0             2021-03-17 07:24:05.054  2021-03-17 07:24:04.750939201 sec-epoch-now=1615965845 sec_epoch_plc=1615965844
LabS-MCAG:MC-MCU-07:UTCEL1252P0             2021-03-17 07:24:06.058  2021-03-17 07:24:05.750939258 sec-epoch-now=1615965846 sec_epoch_plc=1615965845
LabS-MCAG:MC-MCU-07:UTCEL1252P0             2021-03-17 07:24:07.062  2021-03-17 07:24:06.750939315 sec-epoch-now=1615965847 sec_epoch_plc=1615965846
LabS-MCAG:MC-MCU-07:UTCEL1252P0             2021-03-17 07:24:08.066  2021-03-17 07:24:07.750939360 sec-epoch-now=1615965848 sec_epoch_plc=1615965847
LabS-MCAG:MC-MCU-07:UTCEL1252P0             2021-03-17 07:24:09.071  2021-03-17 07:24:08.750939392 sec-epoch-now=1615965849 sec_epoch_plc=1615965848
LabS-MCAG:MC-MCU-07:UTCEL1252P0             2021-03-17 07:24:10.075  2021-03-17 07:24:09.750939424 sec-epoch-now=1615965850 sec_epoch_plc=1615965849
LabS-MCAG:MC-MCU-07:UTCEL1252P0             2021-03-17 07:24:11.081  2021-03-17 07:24:10.750939461 sec-epoch-now=1615965851 sec_epoch_plc=1615965850
LabS-MCAG:MC-MCU-07:UTCEL1252P0             2021-03-17 07:24:12.089  2021-03-17 07:24:11.750939520 sec-epoch-now=1615965852 sec_epoch_plc=1615965851
LabS-MCAG:MC-MCU-07:UTCEL1252P0             2021-03-17 07:24:13.098  2021-03-17 07:24:12.750939582 sec-epoch-now=1615965853 sec_epoch_plc=1615965852
LabS-MCAG:MC-MCU-07:UTCEL1252P0             2021-03-17 07:24:14.106  2021-03-17 07:24:13.750939652 sec-epoch-now=1615965854 sec_epoch_plc=1615965853
LabS-MCAG:MC-MCU-07:UTCEL1252P0             2021-03-17 07:24:15.114  2021-03-17 07:24:14.750939718 sec-epoch-now=1615965855 sec_epoch_plc=1615965854
LabS-MCAG:MC-MCU-07:UTCEL1252P0             2021-03-17 07:24:16.122  2021-03-17 07:24:15.750939763 sec-epoch-now=1615965856 sec_epoch_plc=1615965855
LabS-MCAG:MC-MCU-07:UTCEL1252P0             2021-03-17 07:24:17.129  2021-03-17 07:24:16.750939804 sec-epoch-now=1615965857 sec_epoch_plc=1615965856
LabS-MCAG:MC-MCU-07:UTCEL1252P0             2021-03-17 07:24:18.133  2021-03-17 07:24:17.750939823 sec-epoch-now=1615965858 sec_epoch_plc=1615965857
LabS-MCAG:MC-MCU-07:UTCEL1252P0             2021-03-17 07:24:19.137  2021-03-17 07:24:18.750939844 sec-epoch-now=1615965859 sec_epoch_plc=1615965858
LabS-MCAG:MC-MCU-07:UTCEL1252P0             2021-03-17 07:24:20.141  2021-03-17 07:24:19.750939863 sec-epoch-now=1615965860 sec_epoch_plc=1615965859
LabS-MCAG:MC-MCU-07:UTCEL1252P0             2021-03-17 07:24:21.145  2021-03-17 07:24:20.750939882 sec-epoch-now=1615965861 sec_epoch_plc=1615965860
LabS-MCAG:MC-MCU-07:UTCEL1252P0             2021-03-17 07:24:22.149  2021-03-17 07:24:21.750939888 sec-epoch-now=1615965862 sec_epoch_plc=1615965861
LabS-MCAG:MC-MCU-07:UTCEL1252P0             2021-03-17 07:24:23.153  2021-03-17 07:24:22.750939891 sec-epoch-now=1615965863 sec_epoch_plc=1615965862
LabS-MCAG:MC-MCU-07:UTCEL1252P0             2021-03-17 07:24:24.157  2021-03-17 07:24:23.750939876 sec-epoch-now=1615965864 sec_epoch_plc=1615965863
LabS-MCAG:MC-MCU-07:UTCEL1252P0             2021-03-17 07:24:25.163  2021-03-17 07:24:24.750939874 sec-epoch-now=1615965865 sec_epoch_plc=1615965864
LabS-MCAG:MC-MCU-07:UTCEL1252P0             2021-03-17 07:24:26.171  2021-03-17 07:24:25.750939893 sec-epoch-now=1615965866 sec_epoch_plc=1615965865
LabS-MCAG:MC-MCU-07:UTCEL1252P0             2021-03-17 07:24:27.179  2021-03-17 07:24:26.750939899 sec-epoch-now=1615965867 sec_epoch_plc=1615965866
LabS-MCAG:MC-MCU-07:UTCEL1252P0             2021-03-17 07:24:28.188  2021-03-17 07:24:27.750939902 sec-epoch-now=1615965868 sec_epoch_plc=1615965867
